^D:\PRODJECT  VISUAL STUDIO\HOMEWORKMODULE16_5\SOURCE.CPP
D:\PRODJECT  VISUAL STUDIO\HOMEWORKMODULE16_5\DEBUG\VC142.PDB
D:\PRODJECT  VISUAL STUDIO\HOMEWORKMODULE16_5\DEBUG\VC142.IDB
D:\PRODJECT  VISUAL STUDIO\HOMEWORKMODULE16_5\DEBUG\SOURCE.OBJ
